{
  "project_info": {
    "project_number": "338851238817",
    "firebase_url": "https://instantmessage-4b058.firebaseio.com",
    "project_id": "instantmessage-4b058",
    "storage_bucket": "instantmessage-4b058.appspot.com"
  },
  "client": [
    {
      "client_info": {
        "mobilesdk_app_id": "1:338851238817:android:1d301b9c84358286",
        "android_client_info": {
          "package_name": "gearlab.com.instantmessage"
        }
      },
      "oauth_client": [
        {
          "client_id": "338851238817-5ob54frmqs30haej80sdd7ufrgq26kd6.apps.googleusercontent.com",
          "client_type": 1,
          "android_info": {
            "package_name": "gearlab.com.instantmessage",
            "certificate_hash": "7022a2c6f4f5e2b70bf101a2e62fb12b5a3c8677"
          }
        },
        {
          "client_id": "338851238817-vhjjkupsmqo3cp2mn8reeasq9id8th83.apps.googleusercontent.com",
          "client_type": 3
        }
      ],
      "api_key": [
        {
          "current_key": "AIzaSyAuBIa9ZuUojRFVrCnDQk1IoXLluoWsAMI"
        }
      ],
      "services": {
        "analytics_service": {
          "status": 1
        },
        "appinvite_service": {
          "status": 2,
          "other_platform_oauth_client": [
            {
              "client_id": "338851238817-vhjjkupsmqo3cp2mn8reeasq9id8th83.apps.googleusercontent.com",
              "client_type": 3
            }
          ]
        },
        "ads_service": {
          "status": 2
        }
      }
    }
  ],
  "configuration_version": "1"
}